size_3_thresh_1.txt Scores
1-gram scores: 
F-1 Score: 0.1927251758642698
Precision: 0.23247295410638338
Recall   : 0.1696490490931264
2-gram scores: 
F-1 Score: 0.03613720435716128
Precision: 0.039943796334297066
Recall   : 0.03399829937126599
longest-gram scores: 
F-1 Score: 0.16041923451214674
Precision: 0.20423122199437987
Recall   : 0.15033293323124372

size_3_thresh_3.txt Scores
1-gram scores: 
F-1 Score: 0.1927568944953162
Precision: 0.23064966572275789
Recall   : 0.16942866182266744
2-gram scores: 
F-1 Score: 0.03445559964180443
Precision: 0.0410967327877553
Recall   : 0.030713717419449747
longest-gram scores: 
F-1 Score: 0.16402447367805129
Precision: 0.20827352148823328
Recall   : 0.1535849008685558

size_3_thresh_8.txt Scores
1-gram scores: 
F-1 Score: 0.17402714880852832
Precision: 0.2224235347896633
Recall   : 0.14963657158647187
2-gram scores: 
F-1 Score: 0.025060549315903576
Precision: 0.032429107731406386
Recall   : 0.021261094492298974
longest-gram scores: 
F-1 Score: 0.14046364296894337
Precision: 0.1944878293683441
Recall   : 0.12992030264615032

size_3_thresh_6.txt Scores
1-gram scores: 
F-1 Score: 0.17418766204250247
Precision: 0.23239828226441078
Recall   : 0.1471168760920928
2-gram scores: 
F-1 Score: 0.028801385465209235
Precision: 0.04045467591322457
Recall   : 0.023515679016430084
longest-gram scores: 
F-1 Score: 0.1373526947594534
Precision: 0.20345247583299056
Recall   : 0.12744139969256382

size_3_thresh_99.txt Scores
1-gram scores: 
F-1 Score: 0.17402714880852832
Precision: 0.2224235347896633
Recall   : 0.14963657158647187
2-gram scores: 
F-1 Score: 0.025060549315903576
Precision: 0.032429107731406386
Recall   : 0.021261094492298974
longest-gram scores: 
F-1 Score: 0.14046364296894337
Precision: 0.1944878293683441
Recall   : 0.12992030264615032

size_3_no_threshold.txt Scores
1-gram scores: 
F-1 Score: 0.19319169734281808
Precision: 0.21911395022511398
Recall   : 0.1817047338116682
2-gram scores: 
F-1 Score: 0.03975066830914133
Precision: 0.04420751551590326
Recall   : 0.03852055609659685
longest-gram scores: 
F-1 Score: 0.16175100850872426
Precision: 0.19492972201391282
Recall   : 0.16089049470294955

random_summary.txt Scores
1-gram scores: 
F-1 Score: 0.12915151080910506
Precision: 0.1498041369213982
Recall   : 0.11537776617400158
2-gram scores: 
F-1 Score: 0.012208012901061629
Precision: 0.014865521893194936
Recall   : 0.010478002919801263
longest-gram scores: 
F-1 Score: 0.11116172108752118
Precision: 0.13476624197957632
Recall   : 0.1036680498526396

